<svg width="46" height="45" viewBox="0 0 46 45" fill="none" xmlns="http://www.w3.org/2000/svg">
<circle cx="23.0975" cy="22.7776" r="22.1634" fill="#F8F8FF"/>
<circle cx="22.8553" cy="23.3881" r="8.77469" stroke="#5A4BC9" stroke-width="2"/>
<path d="M34.1915 23.3879C34.1915 18.5397 31.1478 14.4024 26.867 12.7825L22.856 23.3879H34.1915Z" fill="#F9FAFF" stroke="#5A4BC9" stroke-width="2"/>
</svg>
