<svg width="17" height="13" viewBox="0 0 17 13" fill="none" xmlns="http://www.w3.org/2000/svg">
<path d="M14.8627 5.51206C15.6759 5.91271 15.6759 7.07218 14.8627 7.47283L8.70045 10.5089C7.97416 10.8668 7.1245 10.3382 7.1245 9.52856L7.1245 3.45633C7.1245 2.64667 7.97416 2.11811 8.70046 2.47595L14.8627 5.51206Z" fill="#221C55"/>
<path d="M10.3671 6.49317L2.05859 6.49316" stroke="#221C55" stroke-width="2.73231" stroke-linecap="round"/>
</svg>
