<svg width="304" height="276" viewBox="0 0 304 276" fill="none" xmlns="http://www.w3.org/2000/svg">
<path d="M10.2695 93.8075C10.1478 94.1154 10.1864 94.4636 10.3726 94.7374C10.5588 95.0111 10.8684 95.175 11.1995 95.175H76.85C77.4023 95.175 77.85 94.7273 77.85 94.175V24.0912C77.85 23.7482 77.6742 23.4291 77.3843 23.2459C77.0943 23.0626 76.7307 23.0407 76.4209 23.1879C61.456 30.2981 48.0912 40.0519 36.701 52.1866C25.2735 64.3587 16.3752 78.3571 10.2695 93.8075ZM1.74418 155.898C1.7953 156.409 2.22547 156.799 2.73922 156.799H76.85C77.4023 156.799 77.85 156.351 77.85 155.799V114.199C77.85 113.647 77.4023 113.199 76.85 113.199H5.10367C4.63306 113.199 4.22613 113.527 4.12639 113.987C2.11653 123.255 1.07422 132.784 1.07422 142.351C1.07422 146.891 1.29748 151.431 1.74418 155.898ZM76.421 261.55C76.555 261.614 76.7016 261.647 76.85 261.647H76.8869C77.4392 261.647 77.8869 261.199 77.8869 260.647V175.859C77.8869 175.307 77.4392 174.859 76.8869 174.859H6.39673C6.08647 174.859 5.79378 175.003 5.60447 175.249C5.41515 175.495 5.35066 175.815 5.42988 176.115C10.307 194.581 19.3526 212.113 31.6754 226.856C43.8489 241.449 59.3333 253.435 76.421 261.55ZM95.874 268.184C95.874 268.631 96.1703 269.023 96.6 269.146C108.364 272.496 120.574 274.208 132.895 274.208C146.704 274.208 160.33 272.087 173.363 267.842C173.775 267.708 174.054 267.324 174.054 266.891V175.822C174.054 175.27 173.606 174.822 173.054 174.822H96.874C96.3217 174.822 95.874 175.27 95.874 175.822V268.184ZM95.874 155.799C95.874 156.351 96.3217 156.799 96.874 156.799H121.073C121.338 156.799 121.592 156.693 121.78 156.506L226.924 51.3985C227.312 51.0101 227.315 50.381 226.929 49.9896C214.796 37.6701 200.649 27.9529 184.826 21.1769C168.408 14.1034 150.91 10.53 132.895 10.53C120.537 10.53 108.327 12.2423 96.5992 15.593C96.1699 15.7156 95.874 16.108 95.874 16.5545V155.799ZM193.115 221.336C192.562 221.336 192.115 221.783 192.115 222.336V258.541C192.115 258.891 192.297 259.215 192.595 259.396C192.894 259.577 193.266 259.59 193.576 259.429C210.477 250.643 225.552 238.062 237.242 222.947C237.475 222.646 237.516 222.238 237.348 221.895C237.18 221.553 236.832 221.336 236.45 221.336H193.115ZM192.115 202.312C192.115 202.864 192.562 203.312 193.115 203.312H249.233C249.608 203.312 249.952 203.102 250.123 202.768C254.478 194.282 257.94 185.311 260.36 176.114C260.439 175.814 260.374 175.494 260.185 175.249C259.996 175.003 259.703 174.859 259.393 174.859H193.115C192.562 174.859 192.115 175.307 192.115 175.859V202.312ZM148.739 155.091C148.551 155.279 148.446 155.533 148.446 155.799V155.835C148.446 156.388 148.894 156.835 149.446 156.835H263.087C263.601 156.835 264.031 156.446 264.083 155.935C264.529 151.468 264.753 146.89 264.753 142.388C264.753 114.544 256.19 87.9612 239.996 65.4758C239.824 65.2378 239.557 65.0871 239.265 65.0634C238.973 65.0398 238.685 65.1457 238.477 65.3531L148.739 155.091Z" fill="#F8F8FF" stroke="#221C55" stroke-width="2" stroke-linejoin="round"/>
<path d="M130.505 144.757C130.505 155.584 118.721 176.191 111.108 185.199C111.108 185.199 105.625 185.191 103.933 185.199C102.221 185.208 100.505 184.5 99.2922 183.074C91.6795 174.066 77.2998 155.541 77.2998 144.757C77.2998 130.081 89.2265 118.154 103.902 118.154C107.585 118.154 112.607 118.154 112.607 118.154C122.134 122.195 130.505 133.732 130.505 144.757Z" fill="#E6E4FA" stroke="#221C55" stroke-width="3" stroke-miterlimit="10"/>
<path d="M137.993 144.754C137.993 155.579 123.585 174.051 115.974 183.066C113.573 185.911 109.176 185.911 106.775 183.066C99.1642 174.051 84.7559 155.542 84.7559 144.754C84.7559 130.05 96.652 118.154 111.356 118.154C126.06 118.154 137.993 130.05 137.993 144.754Z" fill="#5A4BC9" stroke="#221C55" stroke-width="3" stroke-miterlimit="10"/>
<path d="M111.356 159.754C120.027 159.754 127.057 152.724 127.057 144.053C127.057 135.381 120.027 128.351 111.356 128.351C102.684 128.351 95.6543 135.381 95.6543 144.053C95.6543 152.724 102.684 159.754 111.356 159.754Z" fill="white" stroke="#221C55" stroke-width="2" stroke-miterlimit="10"/>
<path fill-rule="evenodd" clip-rule="evenodd" d="M108.067 159.474C109.027 159.658 110.019 159.754 111.033 159.754C119.705 159.754 126.734 152.724 126.734 144.053C126.734 135.381 119.705 128.351 111.033 128.351C110.019 128.351 109.027 128.447 108.067 128.631C115.32 130.018 120.802 136.395 120.802 144.053C120.802 151.71 115.32 158.087 108.067 159.474Z" fill="#E6E4FA"/>
<path d="M108.067 159.474L107.879 158.492C107.408 158.582 107.067 158.994 107.067 159.474C107.067 159.954 107.408 160.366 107.879 160.456L108.067 159.474ZM108.067 128.631L107.879 127.649C107.408 127.739 107.067 128.151 107.067 128.631C107.067 129.111 107.408 129.523 107.879 129.613L108.067 128.631ZM107.879 160.456C108.901 160.652 109.956 160.754 111.033 160.754V158.754C110.082 158.754 109.154 158.664 108.255 158.492L107.879 160.456ZM111.033 160.754C120.257 160.754 127.734 153.276 127.734 144.053H125.734C125.734 152.172 119.152 158.754 111.033 158.754V160.754ZM127.734 144.053C127.734 134.829 120.257 127.351 111.033 127.351V129.351C119.152 129.351 125.734 135.933 125.734 144.053H127.734ZM111.033 127.351C109.956 127.351 108.901 127.453 107.879 127.649L108.255 129.613C109.154 129.441 110.082 129.351 111.033 129.351V127.351ZM121.802 144.053C121.802 135.906 115.971 129.124 108.255 127.649L107.879 129.613C114.67 130.911 119.802 136.884 119.802 144.053H121.802ZM108.255 160.456C115.971 158.981 121.802 152.199 121.802 144.053H119.802C119.802 151.221 114.67 157.194 107.879 158.492L108.255 160.456Z" fill="#221C55"/>
<path d="M48.5505 37.6168C48.5505 47.0746 39.7544 65.0758 33.1044 72.9449C33.1044 72.9449 26.8175 72.9374 25.3396 72.9449C23.8435 72.9525 22.3447 72.3337 21.2854 71.0886C14.6354 63.2194 2.07422 47.0376 2.07422 37.6168C2.07422 24.797 12.4926 14.3787 25.3123 14.3787C28.5294 14.3787 32.9166 14.3787 32.9166 14.3787C41.2384 17.9085 48.5505 27.9864 48.5505 37.6168Z" fill="#E6E4FA" stroke="#221C55" stroke-width="3" stroke-miterlimit="10"/>
<path d="M55.7292 37.6168C55.7292 47.0746 43.168 63.2194 36.518 71.0886C34.4122 73.5638 30.5699 73.5638 28.4641 71.0886C21.8141 63.2194 9.25293 47.0376 9.25293 37.6168C9.25293 24.797 19.6713 14.3787 32.4911 14.3787C45.3108 14.3787 55.7292 24.7601 55.7292 37.6168Z" fill="#5A4BC9" stroke="#221C55" stroke-width="3" stroke-miterlimit="10"/>
<path d="M32.4906 50.7322C40.0605 50.7322 46.197 44.5956 46.197 37.0258C46.197 29.4559 40.0605 23.3193 32.4906 23.3193C24.9208 23.3193 18.7842 29.4559 18.7842 37.0258C18.7842 44.5956 24.9208 50.7322 32.4906 50.7322Z" fill="white" stroke="#221C55" stroke-width="2" stroke-miterlimit="10"/>
<path fill-rule="evenodd" clip-rule="evenodd" d="M30.8779 50.488C31.7164 50.6483 32.582 50.7322 33.4672 50.7322C41.037 50.7322 47.1736 44.5956 47.1736 37.0258C47.1736 29.4559 41.037 23.3193 33.4672 23.3193C32.582 23.3193 31.7164 23.4032 30.8779 23.5635C37.2098 24.7741 41.9951 30.3411 41.9951 37.0258C41.9951 43.7104 37.2098 49.2774 30.8779 50.488Z" fill="#E6E4FA"/>
<path d="M30.8779 50.488L30.6901 49.5058C30.2188 49.5959 29.8779 50.0081 29.8779 50.488C29.8779 50.9679 30.2188 51.3801 30.6901 51.4702L30.8779 50.488ZM30.8779 23.5635L30.6901 22.5813C30.2188 22.6714 29.8779 23.0837 29.8779 23.5635C29.8779 24.0434 30.2188 24.4556 30.6901 24.5458L30.8779 23.5635ZM30.6901 51.4702C31.5902 51.6423 32.5186 51.7322 33.4672 51.7322V49.7322C32.6453 49.7322 31.8426 49.6543 31.0657 49.5058L30.6901 51.4702ZM33.4672 51.7322C41.5893 51.7322 48.1736 45.1479 48.1736 37.0258H46.1736C46.1736 44.0433 40.4847 49.7322 33.4672 49.7322V51.7322ZM48.1736 37.0258C48.1736 28.9036 41.5893 22.3193 33.4672 22.3193V24.3193C40.4847 24.3193 46.1736 30.0082 46.1736 37.0258H48.1736ZM33.4672 22.3193C32.5186 22.3193 31.5902 22.4093 30.6901 22.5813L31.0657 24.5458C31.8426 24.3972 32.6453 24.3193 33.4672 24.3193V22.3193ZM42.9951 37.0258C42.9951 29.8523 37.8601 23.8803 31.0657 22.5813L30.6901 24.5458C36.5595 25.6679 40.9951 30.8299 40.9951 37.0258H42.9951ZM31.0657 51.4702C37.8601 50.1712 42.9951 44.1992 42.9951 37.0258H40.9951C40.9951 43.2216 36.5595 48.3836 30.6901 49.5058L31.0657 51.4702Z" fill="#221C55"/>
<g style="mix-blend-mode:darken">
<path d="M250.046 258.927C271.981 258.927 289.762 241.146 289.762 219.212C289.762 197.278 271.981 179.496 250.046 179.496C228.112 179.496 210.331 197.278 210.331 219.212C210.331 241.146 228.112 258.927 250.046 258.927Z" fill="#E6E4FA"/>
</g>
<path d="M262.274 250.34C284.209 250.34 301.99 232.558 301.99 210.624C301.99 188.69 284.209 170.909 262.274 170.909C240.34 170.909 222.559 188.69 222.559 210.624C222.559 232.558 240.34 250.34 262.274 250.34Z" fill="#F07255" stroke="#221C55" stroke-width="3" stroke-miterlimit="10"/>
<path d="M262.274 239.847C278.414 239.847 291.498 226.764 291.498 210.624C291.498 194.485 278.414 181.401 262.274 181.401C246.135 181.401 233.051 194.485 233.051 210.624C233.051 226.764 246.135 239.847 262.274 239.847Z" fill="white" stroke="black" stroke-width="3" stroke-miterlimit="10"/>
<g style="mix-blend-mode:darken">
<path d="M108.067 207.377C119.335 207.377 128.469 204.806 128.469 201.633C128.469 198.461 119.335 195.889 108.067 195.889C96.7986 195.889 87.6641 198.461 87.6641 201.633C87.6641 204.806 96.7986 207.377 108.067 207.377Z" fill="#E6E4FA"/>
</g>
<path d="M32.491 90.3623C40.6001 90.3623 47.1738 88.4997 47.1738 86.2021C47.1738 83.9046 40.6001 82.042 32.491 82.042C24.3818 82.042 17.8081 83.9046 17.8081 86.2021C17.8081 88.4997 24.3818 90.3623 32.491 90.3623Z" fill="#E6E4FA"/>
<path d="M241.481 50.8779C241.481 70.8018 213.268 108.723 199.259 125.301C199.259 125.301 195.699 125.285 192.585 125.301C189.434 125.317 186.276 124.013 184.045 121.39C170.036 104.813 143.574 70.724 143.574 50.8779C143.574 23.8717 165.522 1.92432 192.528 1.92432C199.305 1.92432 201.944 1.92432 201.944 1.92432C219.475 9.36036 241.481 30.5904 241.481 50.8779Z" fill="#E6E4FA" stroke="#221C55" stroke-width="3" stroke-miterlimit="10"/>
<path d="M251.046 50.8759C251.046 70.752 224.594 104.778 210.555 121.366C206.122 126.612 198.031 126.612 193.634 121.366C179.632 104.778 153.143 70.752 153.143 50.8759C153.143 23.8324 175.051 1.92432 202.095 1.92432C229.138 1.92432 251.046 23.8694 251.046 50.8759Z" fill="#40C1BE" stroke="#221C55" stroke-width="3" stroke-miterlimit="10"/>
<path d="M202.095 143.274C213.868 143.274 223.412 141.356 223.412 138.989C223.412 136.622 213.868 134.703 202.095 134.703C190.322 134.703 180.778 136.622 180.778 138.989C180.778 141.356 190.322 143.274 202.095 143.274Z" fill="#E6E4FA"/>
<path d="M219.102 49.6449H205.552V36.0944C205.552 34.1932 203.996 32.6377 202.095 32.6377C200.194 32.6377 198.638 34.1932 198.638 36.0944V49.6449H185.088C183.186 49.6449 181.631 51.2004 181.631 53.1017C181.631 55.0029 183.186 56.5584 185.088 56.5584H198.638V70.1089C198.638 72.0101 200.194 73.5656 202.095 73.5656C203.996 73.5656 205.552 72.0101 205.552 70.1089V56.5584H219.102C221.003 56.5584 222.559 55.0029 222.559 53.1017C222.559 51.2004 221.003 49.6449 219.102 49.6449Z" fill="white" stroke="#221C55" stroke-width="2.80698" stroke-miterlimit="10"/>
<path d="M265.258 216.232C265.258 215.565 265.109 214.979 264.81 214.473C264.511 213.944 263.993 213.507 263.257 213.162C262.521 212.817 261.532 212.552 260.291 212.368C259.355 212.23 258.238 212.143 256.937 212.109C256.225 212.09 255.673 211.47 255.75 210.762C255.935 209.054 256.092 207.324 256.22 205.572C256.35 203.79 256.457 202.098 256.542 200.495C256.576 199.861 257.099 199.363 257.734 199.363H268.346C269.003 199.363 269.536 199.895 269.536 200.552V202.485C269.536 203.142 269.003 203.675 268.346 203.675H262.037C261.405 203.675 260.885 204.168 260.841 204.798C260.81 205.235 260.776 205.666 260.739 206.09C260.723 206.352 260.706 206.604 260.687 206.845C260.634 207.523 261.137 208.126 261.813 208.207C264.543 208.533 266.6 209.288 267.984 210.471C269.593 211.805 270.398 213.668 270.398 216.059C270.398 217.163 270.203 218.187 269.812 219.13C269.421 220.073 268.834 220.889 268.053 221.579C267.271 222.269 266.282 222.81 265.086 223.201C263.913 223.591 262.533 223.787 260.946 223.787C260.325 223.787 259.67 223.741 258.98 223.649C258.313 223.58 257.657 223.477 257.013 223.339C256.392 223.224 255.829 223.097 255.323 222.959C255.215 222.93 255.113 222.9 255.016 222.871C254.494 222.714 254.232 222.172 254.349 221.64L254.77 219.721C254.931 218.987 255.728 218.576 256.446 218.798C256.728 218.886 257.032 218.973 257.358 219.061C258.301 219.291 259.428 219.406 260.739 219.406C262.326 219.406 263.476 219.095 264.189 218.474C264.902 217.83 265.258 217.083 265.258 216.232Z" fill="black"/>
</svg>
